Subject,Trial,Direction,Congruency,Stimulus,CorrectAnswer,rt
01,1,left,congruent,Z,s,459
01,2,right,incongruent,B,l,603
01,3,left,neutral,Z,s,527
01,4,right,congruent,B,l,578
01,5,left,incongruent,Z,s,571
01,6,right,neutral,B,l,515
01,7,left,congruent,Z,s,491
01,8,right,incongruent,B,l,541
01,9,left,neutral,Z,s,680
01,10,right,congruent,B,l,457
01,11,left,incongruent,Z,s,662
01,12,right,neutral,B,l,609
