Subject,Trial,Direction,Congruency,Stimulus,CorrectAnswer,rt
07,1,left,congruent,Z,s,483
07,2,right,incongruent,B,l,681
07,3,left,neutral,Z,s,554
07,4,right,congruent,B,l,572
07,5,left,incongruent,Z,s,583
07,6,right,neutral,B,l,561
07,7,left,congruent,Z,s,512
07,8,right,incongruent,B,l,652
07,9,left,neutral,Z,s,746
07,10,right,congruent,B,l,574
07,11,left,incongruent,Z,s,560
07,12,right,neutral,B,l,522
